QBio305 - Genetic analysis of phenotypic variation measured in the Oregon Wolfe Barley collection
…
# Summary statistics per genotype
dta_quant_raw |>
  dplyr::select(Genotype, Height) |>
  dplyr::group_by(Genotype) |>
  dplyr::summarise(
    Count = n(),
    Mean = mean(Height),
    Sd = sd(Height)
  )

# A tibble: 51 × 4
   Genotype Count  Mean    Sd
   <fct>    <int> <dbl> <dbl>
 1 OWB10        5  48.2 1.25 
 2 OWB13        5  55.1 0.472
 3 OWB17        5  88.8 0.873
 4 OWB18        5  60.2 1.04 
 5 OWB19        5  44.5 0.456
 6 OWB2         5  33.6 0.490
 7 OWB20        5  31.8 1.05 
 8 OWB21        5  60.2 3.50 
 9 OWB23        5  37.2 1.00 
10 OWB24        5  41.9 0.536
# ℹ 41 more rows
…
